<?xml version="1.0" encoding="UTF-8" standalone="no"?>
<!-- Created with Inkscape (http://www.inkscape.org/) -->

<svg
   width="1920"
   height="1080"
   viewBox="0 0 508 285.75"
   version="1.1"
   id="svg1"
   inkscape:export-filename="cooldownTab.png"
   inkscape:export-xdpi="95.840263"
   inkscape:export-ydpi="95.840263"
   inkscape:version="1.3.2 (091e20e, 2023-11-25, custom)"
   sodipodi:docname="VR Game UI.svg"
   xmlns:inkscape="http://www.inkscape.org/namespaces/inkscape"
   xmlns:sodipodi="http://sodipodi.sourceforge.net/DTD/sodipodi-0.dtd"
   xmlns:xlink="http://www.w3.org/1999/xlink"
   xmlns="http://www.w3.org/2000/svg"
   xmlns:svg="http://www.w3.org/2000/svg">
  <sodipodi:namedview
     id="namedview1"
     pagecolor="#ffffff"
     bordercolor="#111111"
     borderopacity="1"
     inkscape:showpageshadow="0"
     inkscape:pageopacity="0"
     inkscape:pagecheckerboard="1"
     inkscape:deskcolor="#d1d1d1"
     inkscape:document-units="px"
     inkscape:zoom="2.175463"
     inkscape:cx="706.0566"
     inkscape:cy="132.15578"
     inkscape:window-width="2496"
     inkscape:window-height="1417"
     inkscape:window-x="56"
     inkscape:window-y="-8"
     inkscape:window-maximized="1"
     inkscape:current-layer="svg1"
     showgrid="false" />
  <defs
     id="defs1">
    <linearGradient
       id="linearGradient14"
       inkscape:collect="always">
      <stop
         style="stop-color:#88510d;stop-opacity:1;"
         offset="0"
         id="stop15" />
      <stop
         style="stop-color:#6e410e;stop-opacity:1;"
         offset="0.67331672"
         id="stop17" />
      <stop
         style="stop-color:#51310e;stop-opacity:1;"
         offset="1"
         id="stop16" />
    </linearGradient>
    <linearGradient
       id="linearGradient12"
       inkscape:collect="always">
      <stop
         style="stop-color:#926811;stop-opacity:1;"
         offset="0"
         id="stop12" />
      <stop
         style="stop-color:#d99529;stop-opacity:1;"
         offset="0.88778055"
         id="stop14" />
      <stop
         style="stop-color:#f4cc9f;stop-opacity:1;"
         offset="1"
         id="stop13" />
    </linearGradient>
    <inkscape:path-effect
       effect="fillet_chamfer"
       id="path-effect12"
       is_visible="true"
       lpeversion="1"
       nodesatellites_param="F,0,1,1,0,0.88320937,0,1 @ F,0,0,1,0,0,0,1 @ F,0,0,1,0,0,0,1 @ F,0,0,1,0,0,0,1 @ F,0,0,1,0,0.88320937,0,1"
       radius="0"
       unit="px"
       method="auto"
       mode="F"
       chamfer_steps="1"
       flexible="false"
       use_knot_distance="true"
       apply_no_radius="true"
       apply_with_radius="true"
       only_selected="false"
       hide_knots="false" />
    <linearGradient
       id="linearGradient9"
       inkscape:collect="always">
      <stop
         style="stop-color:#500000;stop-opacity:1;"
         offset="0.10972568"
         id="stop9" />
      <stop
         style="stop-color:#4d0000;stop-opacity:0;"
         offset="0.64588529"
         id="stop10" />
    </linearGradient>
    <inkscape:path-effect
       effect="fillet_chamfer"
       id="path-effect9"
       is_visible="true"
       lpeversion="1"
       nodesatellites_param="F,0,1,1,0,0.88320937,0,1 @ F,0,0,1,0,0,0,1 @ F,0,0,1,0,0,0,1 @ F,0,0,1,0,0,0,1 @ F,0,0,1,0,0.88320937,0,1"
       radius="0"
       unit="px"
       method="auto"
       mode="F"
       chamfer_steps="1"
       flexible="false"
       use_knot_distance="true"
       apply_no_radius="true"
       apply_with_radius="true"
       only_selected="false"
       hide_knots="false" />
    <inkscape:path-effect
       effect="fillet_chamfer"
       id="path-effect7"
       is_visible="true"
       lpeversion="1"
       nodesatellites_param="F,0,1,1,0,0,0,1 @ F,0,0,1,0,0,0,1 @ F,0,0,1,0,0,0,1 @ F,0,0,1,0,0,0,1 @ F,0,0,1,0,0.88320937,0,1"
       radius="0"
       unit="px"
       method="auto"
       mode="F"
       chamfer_steps="1"
       flexible="false"
       use_knot_distance="true"
       apply_no_radius="true"
       apply_with_radius="true"
       only_selected="false"
       hide_knots="false" />
    <linearGradient
       id="linearGradient5"
       inkscape:collect="always">
      <stop
         style="stop-color:#ffffff;stop-opacity:1;"
         offset="0"
         id="stop5" />
      <stop
         style="stop-color:#ffffff;stop-opacity:0;"
         offset="0.15710722"
         id="stop6" />
    </linearGradient>
    <inkscape:path-effect
       effect="fillet_chamfer"
       id="path-effect5"
       is_visible="true"
       lpeversion="1"
       nodesatellites_param="F,0,1,1,0,0.88320937,0,1 @ F,0,0,1,0,0,0,1 @ F,0,0,1,0,0,0,1 @ F,0,0,1,0,0,0,1 @ F,0,0,1,0,0.88320937,0,1"
       radius="0"
       unit="px"
       method="auto"
       mode="F"
       chamfer_steps="1"
       flexible="false"
       use_knot_distance="true"
       apply_no_radius="true"
       apply_with_radius="true"
       only_selected="false"
       hide_knots="false" />
    <inkscape:path-effect
       effect="fillet_chamfer"
       id="path-effect3"
       is_visible="true"
       lpeversion="1"
       nodesatellites_param="F,0,1,1,0,0.88320937,0,1 @ F,0,0,1,0,0,0,1 @ F,0,0,1,0,0,0,1 @ F,0,0,1,0,0,0,1 @ F,0,0,1,0,0.88320937,0,1"
       radius="0"
       unit="px"
       method="auto"
       mode="F"
       chamfer_steps="1"
       flexible="false"
       use_knot_distance="true"
       apply_no_radius="true"
       apply_with_radius="true"
       only_selected="false"
       hide_knots="false" />
    <linearGradient
       inkscape:collect="always"
       xlink:href="#linearGradient5"
       id="linearGradient6"
       x1="258.89026"
       y1="45.52504"
       x2="258.89026"
       y2="62.084888"
       gradientUnits="userSpaceOnUse" />
    <linearGradient
       inkscape:collect="always"
       xlink:href="#linearGradient5"
       id="linearGradient7"
       gradientUnits="userSpaceOnUse"
       x1="321.08728"
       y1="42.72517"
       x2="309.48782"
       y2="56.285168" />
    <linearGradient
       inkscape:collect="always"
       xlink:href="#linearGradient9"
       id="linearGradient10"
       x1="249.98686"
       y1="60.925999"
       x2="249.99947"
       y2="45.52504"
       gradientUnits="userSpaceOnUse" />
    <linearGradient
       inkscape:collect="always"
       xlink:href="#linearGradient12"
       id="linearGradient13"
       x1="301.74457"
       y1="63.143223"
       x2="302.7576"
       y2="44.466705"
       gradientUnits="userSpaceOnUse" />
    <linearGradient
       inkscape:collect="always"
       xlink:href="#linearGradient14"
       id="linearGradient16"
       x1="301.74457"
       y1="63.143223"
       x2="302.7576"
       y2="44.466705"
       gradientUnits="userSpaceOnUse" />
  </defs>
  <g
     inkscape:label="Cooldown"
     inkscape:groupmode="layer"
     id="layer1"
     transform="translate(-36.675482,-18.787592)">
    <path
       id="rect2"
       style="fill:#ffffff;fill-opacity:1;stroke:none;stroke-width:0.264583;stroke-linecap:round;stroke-linejoin:round;stroke-miterlimit:300;stroke-dasharray:none;stroke-opacity:1;paint-order:fill markers stroke"
       inkscape:label="cooldownTab"
       d="m 36.807772,18.919884 v 14.66112 c 3.414432,-6.840013 9.342802,-12.09377 16.543693,-14.66112 z m 36.576579,0 c 7.107009,2.58795 12.953767,7.798258 16.340088,14.561385 V 18.919884 Z M 36.807772,59.887409 47.258814,98.427177 79.141106,98.294882 89.724439,59.887409 C 84.736771,69.942961 74.490653,76.312364 63.266106,76.334984 52.041559,76.312365 41.79544,69.942962 36.807772,59.887409 Z"
       transform="translate(1.3125e-6)"
       sodipodi:nodetypes="cccccccccccccc" />
    <circle
       style="display:inline;fill:none;stroke:#ffffff;stroke-width:5.29167;stroke-linecap:round;stroke-linejoin:round;stroke-miterlimit:300;stroke-dasharray:none;stroke-opacity:1;paint-order:fill markers stroke"
       id="path1"
       cx="63.266106"
       cy="46.734207"
       r="22.501028"
       inkscape:label="cooldownRing"
       inkscape:export-filename="cooldownRing.png"
       inkscape:export-xdpi="95.840263"
       inkscape:export-ydpi="95.840263" />
    <text
       xml:space="preserve"
       style="font-size:28.2222px;font-family:'Patrick Hand SC';-inkscape-font-specification:'Patrick Hand SC';text-align:center;text-anchor:middle;display:inline;fill:#ffffff;fill-opacity:1;stroke:none;stroke-width:5.29167;stroke-linecap:round;stroke-linejoin:round;stroke-miterlimit:300;stroke-dasharray:none;stroke-opacity:1;paint-order:fill markers stroke"
       x="63.37635"
       y="55.977451"
       id="text2"
       inkscape:export-filename=".\ability5TempIcon.png"
       inkscape:export-xdpi="95.840263"
       inkscape:export-ydpi="95.840263"
       inkscape:label="glyph5"><tspan
         sodipodi:role="line"
         id="tspan2"
         style="font-style:normal;font-variant:normal;font-weight:normal;font-stretch:normal;font-size:28.2222px;font-family:'Meiryo UI';-inkscape-font-specification:'Meiryo UI';fill:#ffffff;fill-opacity:1;stroke:none;stroke-width:5.29167"
         x="63.37635"
         y="55.977451">風</tspan></text>
    <text
       xml:space="preserve"
       style="font-size:28.2222px;font-family:'Patrick Hand SC';-inkscape-font-specification:'Patrick Hand SC';text-align:center;text-anchor:middle;display:none;fill:#ffffff;fill-opacity:1;stroke:none;stroke-width:5.29167;stroke-linecap:round;stroke-linejoin:round;stroke-miterlimit:300;stroke-dasharray:none;stroke-opacity:1;paint-order:fill markers stroke"
       x="63.37635"
       y="55.977451"
       id="text3"
       inkscape:export-filename=".\ability4TempIcon.png"
       inkscape:export-xdpi="95.840263"
       inkscape:export-ydpi="95.840263"
       inkscape:label="glyph4"><tspan
         sodipodi:role="line"
         id="tspan3"
         style="font-style:normal;font-variant:normal;font-weight:normal;font-stretch:normal;font-size:28.2222px;font-family:'Meiryo UI';-inkscape-font-specification:'Meiryo UI';fill:#ffffff;fill-opacity:1;stroke:none;stroke-width:5.29167"
         x="63.37635"
         y="55.977451">気</tspan></text>
    <text
       xml:space="preserve"
       style="font-size:28.2222px;font-family:'Patrick Hand SC';-inkscape-font-specification:'Patrick Hand SC';text-align:center;text-anchor:middle;display:none;fill:#ffffff;fill-opacity:1;stroke:none;stroke-width:5.29167;stroke-linecap:round;stroke-linejoin:round;stroke-miterlimit:300;stroke-dasharray:none;stroke-opacity:1;paint-order:fill markers stroke"
       x="63.37635"
       y="55.977451"
       id="text4"
       inkscape:export-filename=".\ability3TempIcon.png"
       inkscape:export-xdpi="95.840263"
       inkscape:export-ydpi="95.840263"
       inkscape:label="glyph3"><tspan
         sodipodi:role="line"
         style="font-style:normal;font-variant:normal;font-weight:normal;font-stretch:normal;font-size:28.2222px;font-family:'Meiryo UI';-inkscape-font-specification:'Meiryo UI';fill:#ffffff;fill-opacity:1;stroke:none;stroke-width:5.29167"
         x="63.37635"
         y="55.977451"
         id="tspan7">土</tspan></text>
    <text
       xml:space="preserve"
       style="font-size:28.2222px;font-family:'Patrick Hand SC';-inkscape-font-specification:'Patrick Hand SC';text-align:center;text-anchor:middle;display:none;fill:#ffffff;fill-opacity:1;stroke:none;stroke-width:5.29167;stroke-linecap:round;stroke-linejoin:round;stroke-miterlimit:300;stroke-dasharray:none;stroke-opacity:1;paint-order:fill markers stroke"
       x="63.37635"
       y="55.977451"
       id="text5"
       inkscape:export-filename=".\ability2TempIcon.png"
       inkscape:export-xdpi="95.840263"
       inkscape:export-ydpi="95.840263"
       inkscape:label="glyph2"><tspan
         sodipodi:role="line"
         id="tspan5"
         style="font-style:normal;font-variant:normal;font-weight:normal;font-stretch:normal;font-size:28.2222px;font-family:'Meiryo UI';-inkscape-font-specification:'Meiryo UI';fill:#ffffff;fill-opacity:1;stroke:none;stroke-width:5.29167"
         x="63.37635"
         y="55.977451">水</tspan></text>
    <text
       xml:space="preserve"
       style="font-size:28.2222px;font-family:'Patrick Hand SC';-inkscape-font-specification:'Patrick Hand SC';text-align:center;text-anchor:middle;display:none;fill:#ffffff;fill-opacity:1;stroke:none;stroke-width:5.29167;stroke-linecap:round;stroke-linejoin:round;stroke-miterlimit:300;stroke-dasharray:none;stroke-opacity:1;paint-order:fill markers stroke"
       x="63.37635"
       y="55.977451"
       id="text6"
       inkscape:export-filename=".\ability1TempIcon.png"
       inkscape:export-xdpi="95.840263"
       inkscape:export-ydpi="95.840263"
       inkscape:label="glyph1"><tspan
         sodipodi:role="line"
         id="tspan6"
         style="font-style:normal;font-variant:normal;font-weight:normal;font-stretch:normal;font-size:28.2222px;font-family:'Meiryo UI';-inkscape-font-specification:'Meiryo UI';fill:#ffffff;fill-opacity:1;stroke:none;stroke-width:5.29167"
         x="63.37635"
         y="55.977451">火</tspan></text>
  </g>
  <g
     id="g3"
     inkscape:label="healthbar"
     transform="translate(-36.675481,-18.787592)"
     inkscape:export-filename="Health\healthBarFill.png"
     inkscape:export-xdpi="95.840263"
     inkscape:export-ydpi="95.840263">
    <path
       id="path11"
       style="display:none;fill:url(#linearGradient16);stroke:url(#linearGradient13);stroke-width:1.32292;stroke-linecap:round;stroke-miterlimit:300;stroke-dasharray:none;stroke-opacity:1;paint-order:fill markers stroke"
       d="m 166.39225,44.466707 146.93615,0 c 0,0 6.35698,1.038793 6.35698,9.32267 0,8.207583 -6.35698,9.353844 -6.35698,9.353844 H 166.39225 a 0.88320937,0.88320937 45 0 1 -0.88321,-0.883209 V 45.349916 a 0.88320937,0.88320937 135 0 1 0.88321,-0.883209 z"
       sodipodi:nodetypes="ccsccc"
       inkscape:path-effect="#path-effect12"
       inkscape:original-d="M 165.50904,44.466707 H 313.3284 c 0,0 6.35698,1.038793 6.35698,9.32267 0,8.207583 -6.35698,9.353844 -6.35698,9.353844 H 165.50904 Z"
       inkscape:label="border"
       inkscape:export-filename="Health\healthBarFill.png"
       inkscape:export-xdpi="95.840263"
       inkscape:export-ydpi="95.840263" />
    <path
       id="path3"
       style="display:inline;fill:#9f0000;stroke-width:2.64583;stroke-linecap:round;stroke-miterlimit:300;paint-order:fill markers stroke"
       d="m 167.45058,45.52504 h 144.81949 c 0,0 6.35698,-0.01954 6.35698,8.264337 0,8.207583 -6.35698,8.295511 -6.35698,8.295511 H 167.45058 a 0.88320937,0.88320937 45 0 1 -0.88321,-0.883209 l 0,-14.79343 a 0.88320937,0.88320937 135 0 1 0.88321,-0.883209 z"
       sodipodi:nodetypes="ccsccc"
       inkscape:path-effect="#path-effect5"
       inkscape:original-d="m 166.56737,45.52504 h 145.7027 c 0,0 6.35698,-0.01954 6.35698,8.264337 0,8.207583 -6.35698,8.295511 -6.35698,8.295511 h -145.7027 z"
       inkscape:label="base" />
    <path
       id="path7"
       style="display:inline;fill:url(#linearGradient10);stroke-width:2.64583;stroke-linecap:round;stroke-miterlimit:300;paint-order:fill markers stroke"
       d="m 167.45058,45.52504 h 144.81949 c 0,0 6.35698,-0.01954 6.35698,8.264337 0,8.207583 -6.35698,8.295511 -6.35698,8.295511 H 167.45058 a 0.88320937,0.88320937 45 0 1 -0.88321,-0.883209 l 0,-14.79343 a 0.88320937,0.88320937 135 0 1 0.88321,-0.883209 z"
       sodipodi:nodetypes="ccsccc"
       inkscape:path-effect="#path-effect9"
       inkscape:original-d="m 166.56737,45.52504 h 145.7027 c 0,0 6.35698,-0.01954 6.35698,8.264337 0,8.207583 -6.35698,8.295511 -6.35698,8.295511 h -145.7027 z"
       inkscape:label="base" />
    <path
       id="rect3"
       style="display:inline;fill:url(#linearGradient6);fill-opacity:1;stroke-width:2.64583;stroke-linecap:round;stroke-miterlimit:300;paint-order:fill markers stroke"
       d="M 160.06716,45.52504 H 322.7299 c 0,0 6.35698,-0.01954 6.35698,8.264337 0,8.207583 -6.35698,8.295511 -6.35698,8.295511 H 160.06716 a 0.88320937,0.88320937 45 0 1 -0.88321,-0.883209 v -14.79343 a 0.88320937,0.88320937 135 0 1 0.88321,-0.883209 z"
       sodipodi:nodetypes="ccsccc"
       inkscape:path-effect="#path-effect3"
       inkscape:original-d="M 159.18395,45.52504 H 322.7299 c 0,0 6.35698,-0.01954 6.35698,8.264337 0,8.207583 -6.35698,8.295511 -6.35698,8.295511 H 159.18395 Z"
       inkscape:label="highlight"
       transform="matrix(0.86003596,0,0,0.86003596,33.954888,7.530761)" />
    <path
       id="path6"
       style="display:inline;fill:url(#linearGradient7);fill-opacity:1;stroke-width:2.64583;stroke-linecap:round;stroke-miterlimit:300;paint-order:fill markers stroke"
       d="M 154.26168,45.52504 H 322.7299 c 0,0 6.35698,-0.01954 6.35698,8.264337 0,8.207583 -6.35698,8.295511 -6.35698,8.295511 H 155.14489 a 0.88320937,0.88320937 45 0 1 -0.88321,-0.883209 z"
       sodipodi:nodetypes="ccsccc"
       inkscape:path-effect="#path-effect7"
       inkscape:original-d="M 154.26168,45.52504 H 322.7299 c 0,0 6.35698,-0.01954 6.35698,8.264337 0,8.207583 -6.35698,8.295511 -6.35698,8.295511 H 154.26168 Z"
       inkscape:label="highlight"
       transform="matrix(0.86003596,0,0,0.86003596,33.954888,7.530761)" />
  </g>
</svg>
